<svg version="1.1" xmlns="http://www.w3.org/2000/svg" xmlns:xlink="http://www.w3.org/1999/xlink" x="0px" y="0px"
	 width="230px" height="230px" viewBox="0 0 230 230" enable-background="new 0 0 230 230" xml:space="preserve">
<path fill="#ffffff" d="M115,0C51.906,0,0.746,51.155,0.746,114.254S51.906,228.508,115,228.508
	c63.099,0,114.254-51.155,114.254-114.254S178.099,0,115,0z M189.845,63.572c-19.423-0.571-58.27,72.551-58.27,72.551l0.572,47.986
	l21.699,5.713v13.14H76.153v-12.568l22.289-5.713v-47.415L59.02,69.855l-18.847-6.284V49.29h52.557
	c-1.718,10.283,30.849,69.534,30.849,69.534l23.993-50.683L128.71,63l1.152-13.71h59.982V63.572z"/>
</svg>
