<?xml version="1.0" encoding="utf-8"?>
<!-- Generator: Adobe Illustrator 16.0.0, SVG Export Plug-In . SVG Version: 6.00 Build 0)  -->
<!DOCTYPE svg PUBLIC "-//W3C//DTD SVG 1.1//EN" "http://www.w3.org/Graphics/SVG/1.1/DTD/svg11.dtd">
<svg version="1.1" id="Layer_1" xmlns="http://www.w3.org/2000/svg" xmlns:xlink="http://www.w3.org/1999/xlink" x="0px" y="0px"
	 width="283.464px" height="283.465px" viewBox="0 0 283.464 283.465" enable-background="new 0 0 283.464 283.465"
	 xml:space="preserve">
<g>
	<path fill="#ED1A3B" d="M196.153,171.751c12.453,0,22.09,10.805,22.09,22.089c0,12.926-9.164,23.977-22.09,23.977
		c-14.338,0-23.982-10.817-23.982-23.977C172.171,182.556,181.815,171.751,196.153,171.751z"/>
	<path fill="#fff" d="M207.388,65.647l-53.904,90.212v61.957h-34.787v-61.957L65.222,65.647h39.773l32.609,57.608l32.182-57.608
		H207.388z"/>
</g>
</svg>
